﻿{
  "individs": [
    {
      "name": "Daulet",
      "surname": "Aidarkhan",
      "patronymic": "Kairatuly",
      "biin": "990429300823"
    },
    {
      "name": "Makhambet",
      "surname": "Manakbayev",
      "patronymic": "Bazarbaiuly",
      "biin": "980618300456"
    },
    {
      "name": "Nurlan",
      "surname": "Tukenbayev",
      "biin": "990717301999"
    },
    {
      "name": "Ansagan",
      "surname": "Abdikhany",
      "patronymic": "Zheniskyzy",
      "biin": "001215400987"
    },
    {
      "name": "Dana",
      "surname": "Kairat",
      "patronymic": "Dauletkyzy",
      "biin": "220612600888"
    },
    {
      "name": "IIN",
      "surname": "Damaged",
      "biin": "77777777777"
    }
  ],
  "legals": [
    {
      "companyName": "ИПIceberg",
      "biin": "980526301893"
    },
    {
      "companyName": "ИПMakhanovMadiyar",
      "biin": "990327300171"
    },
    {
      "companyName": "ИПJusan",
      "biin": "990327300171"
    },
    {
      "companyName": "ИПHalyk",
      "biin": "990327300171"
    },
    {
      "companyName": "ИПAlmaty",
      "biin": "990327300171"
    }
  ]
}